Cárdenas, Kim, Tureson_Peer-Review Posting
…
  pivot_longer(
    c(Mompn1:Mompn3, Dadpn1:Dadpn3), # variables that are repeated measures
    # Convert 8 columns to 3: 2 columns each for anti/read (.value), and 
    # one column for time
    names_to = c(".value", "Testo_Measurement"),
    # Extract the names "anti"/"read" from the names of the variables for the 
    # value columns, and then the number to the "time" column
    names_pattern = "(Mompn|Dadpn)([1-3])", 
    # Convert the "time" column to integers
    names_transform = list(time = as.integer)
  )
df_LONG %>% 
  select(CoupID, Testo_Measurement, Mompn,Dadpn, everything())

## # A tibble: 246 x 1,387
##    CoupID Testo_Measureme… Mompn Dadpn Testo1pn_Average Testo2pn_Average
##     <dbl> <chr>            <dbl> <dbl>            <dbl>            <dbl>
##  1     19 1                 4.71  5.68             4.31             6.89
##  2     19 2                 2.58  4.21             4.31             6.89
##  3     19 3                 5.65 10.8              4.31             6.89
##  4     20 1                 3.59 18.8              3.11            32.5 
##  5     20 2                 3.46 25.1              3.11            32.5 
##  6     20 3                 2.29 53.6              3.11            32.5 
##  7     21 1                 8.47 33.7             NA               NA   
##  8     21 2                NA    NA               NA               NA   
##  9     21 3                 5.59 32.0             NA               NA   
## 10     22 1                33.5  20.9             26.9             22.9 
## # … with 236 more rows, and 1,381 more variables: PN.Q.DATA.STARTS.HERE <dbl>,
## #   RelStat <fct>, pnIllnesses_1_1_1.1 <chr>, PNILLL <chr>, PNILLM <chr>,
## #   PNILLN <chr>, PNILLO <chr>, PNILLP <chr>, PNILLQ <chr>, PNILLR <chr>,
## #   pnIllnesses_1_1_1.2 <chr>, PNILLE <chr>, PNILLF <chr>, PNILLG <chr>,
## #   PNILLH <chr>, PNILLI <chr>, PNILLJ <chr>, PNILLK <chr>,
## #   pnIllnesses_1_2_1.1 <chr>, PNILL7 <chr>, PNILL8 <chr>, PNILL9 <chr>,
## #   PNILLA <chr>, PNILLB <chr>, PNILLC <chr>, PNILLD <chr>,
## #   pnIllnesses_1_2_1.2 <chr>, PNILL0 <chr>, PNILL1 <chr>, PNILL2 <chr>,
## #   PNILL3 <chr>, PNILL4 <chr>, PNILL5 <chr>, PNILL6 <chr>,
…
